…
#Behavior duration


```
## Source: local data frame [180 x 7]
## Groups: Animal, Track, Bout, phistate [180]
## 
##    Animal Track  Bout  phistate MonthF     Days    Month
##     <dbl> <dbl> <int>    <fctr>  <dbl>    <dbl>   <fctr>
## 1       2     1     1 Traveling      1 16.15530  January
## 2       8     1     5 Traveling      2 15.99264 February
## 3      34     1     1 Traveling      1 14.97060  January
## 4       2     1     3 Traveling      2 14.14994 February
## 5       2     2     3 Traveling      3 13.98340    March
## 6      40     1    10 Traveling      2 12.95641 February
## 7      15     1     3 Traveling      2 12.03280 February
## 8       6     1     5 Traveling      2 11.63674 February
## 9      10     1     8 Traveling      3 11.43594    March
## 10      8     1    13 Traveling      3 11.22565    March
## # ... with 170 more rows
```

```
## Source: local data frame [167 x 7]
## Groups: Animal, Track, Bout, phistate [167]
## 
##    Animal Track  Bout               phistate MonthF     Days    Month
##     <dbl> <dbl> <int>                 <fctr>  <dbl>    <dbl>   <fctr>
## 1      17     1     3 Area-restricted Search      2 55.96274 February
## 2      15     2     6 Area-restricted Search      3 29.45740    March
## 3      28     1     1 Area-restricted Search      4 28.70588    April
## 4      12     1     4 Area-restricted Search      2 22.97889 February
## 5      40     1     9 Area-restricted Search      2 20.98398 February
## 6      22     1     2 Area-restricted Search      4 20.89941    April
## 7      35     2     7 Area-restricted Search      2 20.26384 February
## 8      31     2     1 Area-restricted Search      2 18.91318 February
## 9      13     1     1 Area-restricted Search      2 17.31207 February
## 10     10     1     5 Area-restricted Search      3 16.77744    March
## # ... with 157 more rows
```

```
## Source: local data frame [347 x 7]
## Groups: Animal, Track, Bout, phistate [347]
## 
##    Animal Track  Bout               phistate MonthF      Days    Month
##     <dbl> <dbl> <int>                 <fctr>  <dbl>     <dbl>   <fctr>
## 1       1     1     1              Traveling      1 0.6059028  January
## 2       1     2     1              Traveling      1 0.4953819  January
## 3       1     3     1              Traveling      1 0.6483912  January
## 4       1     4     1              Traveling      1 0.9278819  January
## 5       1     4     2 Area-restricted Search      1 0.5943171  January
## 6       1     5     1              Traveling      1 0.6500116  January
## 7       1     6     1 Area-restricted Search      1 2.6031250  January
## 8       1     7     1              Traveling      2 0.9866435 February
## 9       1     8     1              Traveling      2 0.5460301 February
## 10      1     9     1 Area-restricted Search      2 3.3496065 February
## # ... with 337 more rows
```
…
